[gd_scene load_steps=2 format=2]

[ext_resource path="res://Assets/Background/Normal.jpg" type="Texture" id=1]

[node name="Background" type="TextureRect"]
anchor_right = 1.0
anchor_bottom = 1.0
texture = ExtResource( 1 )
expand = true
stretch_mode = 4
__meta__ = {
"_edit_use_anchors_": false
}
